<?xml version="1.0" encoding="utf-8"?>
<!-- Generator: Adobe Illustrator 21.0.2, SVG Export Plug-In . SVG Version: 6.00 Build 0)  -->
<svg version="1.1" id="Слой_1" xmlns="http://www.w3.org/2000/svg" xmlns:xlink="http://www.w3.org/1999/xlink" x="0px" y="0px"
	 viewBox="0 0 509.6 382.2" style="enable-background:new 0 0 509.6 382.2;" xml:space="preserve">
<style type="text/css">
	.st0{fill:#FFFFFF;}
	.st1{fill-rule:evenodd;clip-rule:evenodd;fill:#FFFFFF;}
</style>
<g>
	<path class="st0" d="M69.3,286c-0.1-0.1-0.2-0.3-0.2-0.3c-0.2,0.1-0.4,0.2-0.6,0.4c0.1,0.1,0.2,0.3,0.2,0.3
		C68.9,286.3,69.1,286.1,69.3,286"/>
	<path class="st0" d="M253.3,330.5c0.1-0.1,0.2-0.2,0.3-0.3c-0.1,0-0.2,0-0.3,0C253.4,330.3,253.3,330.4,253.3,330.5"/>
	<path class="st0" d="M166.2,170.3c-0.1-1.4-1.3-2.4-2.7-2.3c-0.1,0-0.2,0-0.4,0.1c0.6-0.3,1.3-0.5,2-0.6c2.6-0.2,4.9,1.8,5.1,4.5
		c0.2,2.6-1.8,4.9-4.5,5.1c-2.6,0.2-4.9-1.8-5.1-4.5c-0.1-0.9,0.1-1.8,0.6-2.6c-0.1,0.2-0.1,0.4-0.1,0.7c0.1,1.4,1.3,2.4,2.7,2.3
		C165.3,172.9,166.3,171.7,166.2,170.3"/>
	<path class="st0" d="M179,204.8c-0.1-1.4-1.3-2.4-2.7-2.3c-0.1,0-0.2,0-0.4,0.1c0.6-0.3,1.3-0.5,2-0.6c2.6-0.2,4.9,1.8,5.1,4.5
		c0.2,2.6-1.8,4.9-4.5,5.1c-2.6,0.2-4.9-1.8-5.1-4.5c-0.1-0.9,0.2-1.8,0.6-2.6c0,0.2-0.1,0.4-0.1,0.7c0.1,1.4,1.3,2.4,2.7,2.4
		C178.1,207.4,179.1,206.2,179,204.8"/>
	<path class="st0" d="M181,240.4c-0.1-1.4-1.3-2.4-2.7-2.4c-0.1,0-0.2,0-0.4,0.1c0.6-0.3,1.3-0.5,2-0.6c2.6-0.2,4.9,1.8,5.1,4.5
		c0.2,2.6-1.8,4.9-4.5,5.1c-2.6,0.2-4.9-1.8-5.1-4.5c-0.1-0.9,0.2-1.8,0.6-2.6c0,0.2-0.1,0.4-0.1,0.7c0.1,1.4,1.3,2.4,2.7,2.4
		C180.1,243,181.1,241.8,181,240.4"/>
	<path class="st0" d="M35.9,142.1c0.1,0.1,0.2,0.1,0.2,0.1c0.2-0.1,0.5-0.2,0.7-0.4c-0.1-0.1-0.3-0.3-0.4-0.4
		C36.2,141.7,36.1,141.9,35.9,142.1"/>
	<path class="st0" d="M38.6,138.3c0.8,0,1.4-0.3,1.8-0.9c0.4-0.6,0.5-1.3,0.5-2.2C40,136.2,39.3,137.2,38.6,138.3"/>
	<path class="st0" d="M198.3,114.9c0.5,3.3-6.6,0.2-8.1-2.8c-1.4-3-0.2-6.6,2.9-8.1c3-1.4,10-2.3,10-2.3S197.2,107.2,198.3,114.9"/>
	<path class="st0" d="M258.6,127.6c0,0.3,0,0.5,0,0.8c0.2-0.1,0.5-0.3,0.7-0.4c-0.1-0.2-0.3-0.4-0.4-0.6
		C258.8,127.4,258.6,127.5,258.6,127.6"/>
	<path class="st0" d="M256.6,338.3c0,0.1,0,0.2-0.1,0.3c0.1-0.1,0.2-0.2,0.3-0.3C256.8,338.3,256.7,338.3,256.6,338.3"/>
	<path class="st0" d="M13.3,279.1c0.2-0.1,0.4-0.2,0.7-0.3c-0.1-0.1-0.2-0.4-0.2-0.3c-0.2,0.1-0.4,0.2-0.7,0.3
		C13.2,278.8,13.3,279.1,13.3,279.1"/>
	<path class="st0" d="M52.9,329.4c0.1,1.7,1,2.3,2.9,1.8c0.2-1.7-0.3-2.7-2.1-2.8C53.4,328.5,52.9,329.1,52.9,329.4"/>
	<path class="st0" d="M119.5,94.2l-0.2,0c0.8-1.6,3.7-1.7,5.1-2.4c2-0.9,12.6-10.9,2.6-23.4c-0.5-0.7-1.3-1.1-2.1-1.4
		c-2.4-0.1-4.7-0.1-7.1-0.4c1.4,0.6,2.7,1.2,4.1,1.7c0.6,0.2,3.2,1,3.3,2c0-0.5,11.9,15.3-8.5,23.3c-1.1,0.4-8.4-2.9-9.4-3.5
		c-2.3-1.2-4.7-2.2-7-3.4c-4.5-2.4-8.6-5.1-12.4-8.4c-1.4,0.3-3,1.1-3.4,2c-1.6,4.1-5.4,5.8-8.9,7.2c-6.3,2.4-10.6,6.7-13.7,11.9
		c-2,3.3-3.3,6-7.5,7.7c-3.8,1.5-6.7,5.2-9.9,8c-0.3,0.3-0.4,0.6-0.4,1c0.2,0.9,0.3,1.8,0.5,2.8c0.1,0.5-0.2,1.1-0.8,1.3
		c-4.2,1.2-5.7,4.4-6.8,8.1c-0.1,0.4,0.1,0.9,0.4,1.2c0.4,0.3,0.7,0.6,1,0.9c0.4,0.4,0.4,1,0,1.5c-1.2,1.4-2.3,2.8-3.5,4.3
		c-0.4,0.5-1.1,0.6-1.6,0.2c-0.2-0.1-0.3-0.2-0.5-0.3c-0.5-0.4-1.2-0.3-1.6,0.2c-1.2,1.4-2.3,2.7-3.4,3.9c-1.4,1.6-1.2,3,0.1,4.5
		c0.2,0.2,0.3,0.3,0.5,0.5c-1.9,2.9-3.7,5.9-5.4,8.9c-0.3,0.6-1.1,0.8-1.6,0.4c0,0,0,0,0,0c-0.5-0.3-1.1-0.2-1.5,0.2
		c-1.8,2-4.1,2.7-6.9,2.2c-0.5-0.1-1.1,0.2-1.3,0.7c-0.7,1.7-1.3,3.2-1.9,4.6c-0.2,0.6,0.1,1.2,0.7,1.5c2,0.7,3.7,1.4,5.4,2
		c0.6,0.2,0.9,0.9,0.7,1.5c-2.8,6.5-5,13.2-6.8,20c-0.2-0.1-0.4-0.3-0.6-0.4c-0.8-0.5-1.8-0.9-2.8-1.3c-0.5-0.2-1.1-0.1-1.4,0.3
		c-1.9,2.3-3.7,4.3-5.1,6.4c-0.3,0.5-0.1,1.5,0.1,2.3c0.1,0.5,0.6,0.9,1.2,0.9c0.7,0,1.4-0.1,2-0.4c1.1-0.5,2.1-1.1,3.2-1.8
		c0.9-0.5,1.9,0.2,1.7,1.2c-1.4,7.2-2.4,14.5-2.7,21.9c-0.7,14.4,0.9,30,4.8,45c0.2,0.7-0.3,1.3-1,1.4c-1.1,0.1-2.2,0.6-3.4,2.2
		c1.8-0.1,3.1-0.2,4.3-0.3c0.6,0,1.1,0.3,1.2,0.8c0.5,1.8,1,3.5,1.6,5.3c-0.3,0-0.5,0.1-0.8,0.1c-1.7,0.3-3.3,1-3.1,2.8
		c0.3,3.2,0.6,6.4,4,8.3c3.6,1.9,5.1,4.7,5,8.9c-0.1,3-0.8,6.2,2.6,9c3.4,2.8,5.9,6.8,8,10.7c1.5,2.7,3.2,4.9,6.1,5.9
		c1.8,0.7,3.1,1.7,4.1,3.1c0.1,0.2,0.3,0.5,0.4,0.7c0.2,0.4,0.5,0.8,0.7,1.2c0.8,1.7,2.1,3.3,3.5,4.7c0,0,0,0.1,0.1,0.1
		c9.3,12.3,20.8,21.7,36.1,29c8.2,3.9,16.7,6.9,25.5,9.2c-0.2,0.1-0.3,0.3-0.5,0.4c0.3,0.3,0.5,0.8,0.8,0.8c0.3,0,0.7-0.3,1.3-0.7
		c-0.1-0.1-0.2-0.2-0.3-0.2c12.8,3.3,26.1,5.2,39.3,6.3c0.4,0,0.7,0.1,1.1,0.1c-1.4,1.2-2.7,2.5-4,3.8c-1.7,1.6-0.1,4.3,2.5,3.8
		c3.9-0.7,6.7,0.6,9.6,2.6c1.8,1.2,3.7,1.1,5.1-0.5c1.8-1.9,3.4-3.9,5-5.9c0.5-0.5,0.3-1.3-0.3-1.7c-0.8-0.4-1.5-0.8-2.1-1.2
		c13.8,0.5,28.2,0,42-2.2c0.7-0.1,1.3,0.3,1.3,1c0,0.3,0.1,0.6,0.1,0.9c0.1,0.8,1.1,1.2,1.8,0.8c1-0.6,1.9-1.2,2.5-1.9
		c0.5-0.5,0.9-1.1,1.3-1.7c0.2-0.2,0.4-0.4,0.7-0.5c1.6-0.4,3.3-0.7,4.9-1.1c0.6-0.1,1.1,0.1,1.4,0.6c0.4,0.7,0.9,1.4,1.8,2.1
		c0.1-1.4,0.4-2.5,0.9-3.5c0.1-0.3,0.4-0.5,0.7-0.5c1.3-0.4,2.6-0.8,3.9-1.3c0.7-0.2,1.5,0.2,1.6,1c0,0.9,0.3,1.7,0.9,2.5
		c0.4,0.5,1.2,0.6,1.7,0.1c1.7-1.5,2.7-3.1,2.3-5.4c-0.3-0.1-0.5-0.2-0.7-0.3c2.6-1.1,5.2-2.2,7.7-3.5c-0.1,0.2-0.1,0.3-0.2,0.5
		c3.3,0.4,5-1.2,6.6-2.9c0.3-0.3,0.8-0.4,1.2-0.3c3.5,1,6.3,0.1,8.2-3.2c0.4-0.7,1.4-1.1,2.2-1.7c2.3-1.7,2.7-3.1,1.3-5.5
		c-0.1-0.1-0.1-0.2-0.2-0.3c1-1,2-2,3-3c0.5-0.6,1.5-0.5,1.9,0.2c0.5,1,0.9,2,1.2,3.2c0.2,0.8,1.1,1.2,1.8,0.7
		c3.3-2.1,4.9-5,6.3-7.9c0.2-0.3,0.2-0.7,0-1c-1.2-2.4-2.3-4.6-3.3-6.7c-0.3,0.1-0.6,0.2-0.8,0.3c-0.9-1.3-3.1-2-4.4-0.6
		c-1.8,1.9-3.6,3.7-5.3,5.4c-0.3,0-0.5,0-0.8,0c-1.5,0.1-3.3,0.5-4.2,1.4c-3.4,3.3-6.7,6.7-9.3,10.6c-0.1,0.1-0.2,0.2-0.3,0.3
		c-5.8,4.1-12,7.4-19,10c-0.3,0.1-0.7,0.1-1-0.1c-0.4-0.2-0.7-0.4-1.1-0.6c-0.7-0.4-1.5-0.5-3.1-0.9c0.4,0.8,0.7,1.5,0.8,2.1
		c0.1,0.6-0.3,1.1-0.8,1.3c-2.4,0.7-5,1.4-7.6,1.9c-16.7,3.5-34.3,4.1-51.6,3.6c0-0.2,0-0.4,0-0.6c-1.6-0.1-3,0.1-4.3,0.4
		c-0.1,0-0.2,0-0.3,0c-2.3-0.1-4.6-0.2-6.9-0.3c-20.1-1.1-41.1-5.1-60.3-12.7c-0.1-0.1-0.3-0.1-0.4-0.2c-1.1-1-2.3-2-3.5-3
		c-1.4-1.1-2.6-1.3-3.6-0.6c-0.3,0.2-0.8,0.3-1.2,0.1c-6.2-2.9-12.2-6.3-17.9-10.1c-0.7-0.5-0.6-1.4,0-1.8c0.3-0.2,0.6-0.5,1-0.8
		c0.6-0.6,0.3-1.6-0.5-1.9c-2-0.6-2.7-0.4-4.2,0.8c-0.4,0.4-1.1,0.4-1.5,0c-3.1-2.3-6-4.9-8.8-7.5c0.4-0.2,0.8-0.4,1.2-0.8
		c-0.8-5.5-1.4-6.3-4.9-9.9c-0.8-0.8-1.2-2-1.5-3.1c0.1-0.2,0.1-0.3,0.2-0.5c16.6,20.3,39.2,35.8,64.7,42.6
		c43.2,11.6,102.3,7.8,140.6-16.3c2-1.3,0.7-4.8-1.7-3.8c-41.4,16.1-86.3,23.8-130.5,15.3c-24.4-4.7-44.8-16.1-61.7-33.6
		c-17.9-18.6-25.9-41.3-36.6-63.7c0-0.1-0.1-0.1-0.1-0.2c-2.7-11.2-4.2-22.7-4.6-34.1c-0.6-17.9,2.6-35.6,9.1-52.2
		c0.1-0.3,0.3-0.5,0.6-0.6c1-0.6,1.5-1.8,1.5-3.5c0-0.3,0-0.7,0.1-1c2-4.6,4.3-9.1,6.8-13.5c0.3-0.4,0.8-0.6,1.3-0.5
		c1.1,0.2,2.1-0.5,3.7-2c1.9-1.9,3.9-3.6,5.9-5.4c0.8-0.7,2-2.1,2.5-3.1c2.3-4.1,5.9-7,9.7-9.8c3.1-2.3,6.6-4.5,8.8-7.4
		c2.5-3.3,5.4-4.9,9.3-5.6c3.2-0.6,5.9-2.1,8.1-4.5c2.4-2.6,5.3-4.1,8.9-5c3-0.7,5.8-2.3,8.8-3.3c5.8-1.9,11.5-4.3,17.5-5.4
		c1.2-0.2,2.4-0.4,3.6-0.5c0.2-0.1,0.5-0.2,0.7-0.3C119.8,95.8,119.4,95.1,119.5,94.2 M256.6,338.3c0.1,0,0.2,0,0.3,0
		c-0.1,0.1-0.2,0.2-0.3,0.3C256.6,338.5,256.6,338.4,256.6,338.3 M13.8,278.4c0,0,0.1,0.2,0.2,0.3c-0.2,0.1-0.4,0.2-0.7,0.3
		c0,0-0.1-0.2-0.2-0.3C13.3,278.6,13.5,278.5,13.8,278.4 M36.1,142.2c0,0-0.1-0.1-0.2-0.1c0.1-0.2,0.3-0.4,0.4-0.7
		c0.1,0.1,0.3,0.3,0.4,0.4C36.6,142,36.4,142.1,36.1,142.2 M40.3,137.4c-0.4,0.6-1,0.9-1.8,0.9c0.7-1,1.5-2.1,2.2-3.1
		C40.9,136,40.7,136.8,40.3,137.4"/>
	<path class="st0" d="M284.3,133.1c-0.6-0.6-1-1.1-1.4-1.7c-0.8-1.4-2.3-3.2-1.9-4.3c0.8-2.4-0.1-4-1.5-5.4
		c-0.3-0.3-0.4-0.7-0.3-1.1c1.6-4.9,1.3-4.9-3.2-8.1c-2.4-1.7-4.3-3.9-6.5-5.9c-0.2-0.2-0.6-0.2-0.9-0.3c-0.4,0.4-0.7,0.9-1.1,1.3
		c-0.3,0.4-1,0.6-1.5,0.3c-1.7-0.9-1.3-2.7-1.5-4.2c-0.6-3.4-1.7-4.7-4.9-5.3c-0.5-0.1-1,0.1-1.2,0.5c-1.6,2.6,0.4,7-3.4,8.6
		c-0.6,0.2-1.2,0-1.5-0.5c-1-1.9-1.9-3.6-2.9-5.2c-0.2-0.4-0.2-0.8,0.1-1.2c2.6-3.7,2.4-4.6-0.9-8.3c-0.5-0.6-1.2-1.6-1.5-2.3
		c-0.8-1.7-2.4-2.5-4.2-2.7c-1.4-0.2-2.8-0.3-4.2-0.3c-2.2,0.1-4.1-0.2-5.8-1c2.7,7.8,3.1,14.2,1.4,19.2c-0.3,1.1-1.6,4.8-1.7,4.8
		c1.4,1,2.6,2,3.7,3c0.1,0,0.2,0.1,0.3,0.1c1.3,0.3,3.1,1.6,3.8,2.7c1.5,2.5,3.5,3.2,6.3,2.7c1.4-0.2,2.8-0.3,4.2-0.5
		c2.7-0.2,3.9,0.8,3.7,3.4c-0.1,1.3-0.7,2.6-1.2,3.9c-1.2,3.7,0.9,6,4.9,5.2c1.1-0.2,2.1-0.9,3.2-1c1.8-0.1,3.9-0.3,5.5,0.4
		c5,2.4,5.4,2.7,6.7-1.1c0.2-0.7,1.1-1,1.7-0.6c2.4,1.5,2.4,3.1,0.3,5.4c-1.3,1.4-2.7,2.6-3.7,4.1c-1.1,1.6-0.3,4.7,1.3,5.2
		c2.1,0.7,3.2-0.4,3.9-2.2c0.7-1.7,1.6-3.2,2.5-4.8c0.1-0.3,0.4-0.5,0.7-0.6c0.6-0.2,1.2-0.4,2-0.6
		C284.6,134.7,284.9,133.8,284.3,133.1z M243.6,95.6c-0.5,0.2-1,0.3-1.5,0.4c0-0.3-0.1-0.7-0.1-1c0.6-0.1,1.1-0.1,1.7-0.2
		C243.6,95.1,243.7,95.5,243.6,95.6z M249.1,109.1c-1.7-0.7-3.1-1.4-2.1-3.3c0.1-0.3,1.2-0.5,1.6-0.3
		C250,106.5,250.6,107.6,249.1,109.1z M258.6,128.4c0-0.3-0.1-0.5,0-0.8c0-0.1,0.2-0.2,0.4-0.3c0.1,0.2,0.3,0.4,0.4,0.6
		C259.1,128.1,258.8,128.2,258.6,128.4z"/>
	<path class="st0" d="M207.8,78.8c1.2,0.5,2.4,1,3.7,1.4c0,0-0.1,0-0.1,0c2.3,1.3,4.6,2.8,7,4.6c0.2,0,0.4-0.1,0.5-0.1
		c4-1,8.3-1.1,12.6-0.5c-0.9-0.9-1.6-1.9-2.2-3.1c-1.2-2.6-2.9-4.6-5.6-5.9c-1.1-0.5-3.8-1.4-7.1-2.3c-1,1-2.1,1.9-3.3,2.8
		C211.5,77,209.7,78,207.8,78.8"/>
	<path class="st0" d="M196.3,374.3c0.4,0.1,0.8,0.1,1.1,0.2c0.1-0.9,0.2-1.7,0.3-2.6c-0.2,0-0.5-0.1-0.7-0.1
		C196.8,372.6,196.5,373.5,196.3,374.3"/>
	<path class="st0" d="M172.9,376c0.2,0.1,0.4,0.3,0.5,0.4c0-0.1,0.1-0.3,0.1-0.4c-0.1-0.1-0.2-0.2-0.3-0.2
		C173.2,375.7,173,375.9,172.9,376"/>
	<path class="st1" d="M188.6,96c0.4,0.8,0.9,1.6,1.2,2.5h0c0.2,0,0.5,0,0.7-0.1c0.6-0.2,1-0.7,1-1.6c-0.6-0.7-1.2-1.4-1.8-2.1
		c-0.7-0.2-1.5-0.4-2.2-0.6C187.8,94.7,188.2,95.3,188.6,96"/>
	<path class="st1" d="M179.2,88.6L179.2,88.6L179.2,88.6c1.3,0.2,2.6,0.6,3.7,1.2c0.1,0,0.1,0.1,0.2,0.1c0.1,0.1,0.2,0.1,0.3,0.2
		c1.5,0.9,2.9,2.3,4.1,4c0.7,0.2,1.5,0.4,2.2,0.6c0,0,0,0,0,0C185.5,90.3,182,88.3,179.2,88.6"/>
	<path class="st1" d="M156.2,69c0.4-0.1,0.9-0.1,1.3-0.2c2.5-0.3,4.8-0.2,7,0.3h0c0,0,0,0,0,0l3-1.2l1.3-0.5h0c-0.1,0-0.1,0-0.2,0
		C164.2,67.5,160,68,156.2,69C156.2,69,156.2,69,156.2,69C156.2,69,156.2,69,156.2,69"/>
	<path class="st0" d="M233.7,84.6c-0.8-0.2-1.5-0.3-2.3-0.4c0.8,0.8,1.8,1.4,2.8,1.9C234.1,85.6,233.9,85.1,233.7,84.6"/>
	<path class="st0" d="M222.7,87.3C222.7,87.3,222.6,87.3,222.7,87.3C222.6,87.3,222.6,87.3,222.7,87.3
		C222.6,87.3,222.6,87.3,222.7,87.3"/>
	<path class="st0" d="M127.9,67.4c-0.1-0.9-19.9-6.1-24.3-9.8c-5.8-4.8-8.7-10.9-9.2-18.3c-0.3-4.7,0.3-9.2,3.2-13
		c1.6-2.2,3.6-4.2,5.5-6.2c5.2-5.2,7.6-11.6,8-18.8c0-0.3,0-0.6-0.1-1.3c-1.3,3.6-3,6.5-5.2,9.1c-3.3,3.8-7.5,6.3-11.9,8.7
		c-3.6,1.9-7.3,3.8-10.4,6.5c-4.8,4.3-8.1,9.6-9.7,15.9c-2.5,9.8-0.4,18.9,4.9,27.4c2.6,4.1,5.7,7.6,9.3,10.7
		c3.7,3.2,8,5.8,12.4,8.4c10.8,6.2,18.9,8,19.9,7.5C143.5,83.9,127.9,66.9,127.9,67.4"/>
	<path class="st0" d="M190.3,112.1c1.4,3,8.5,6.2,8.1,2.8c-1.1-7.7,4.8-13.2,4.8-13.2s-7,0.9-10,2.3
		C190.1,105.5,188.9,109.1,190.3,112.1"/>
	<path class="st0" d="M228.7,97.6c1.2,1.6,2.8-2.8,2.1-4.7c-0.7-1.9-2.8-2.8-4.7-2.1c-1.9,0.7-5.2,3.4-5.2,3.4
		S225.8,93.9,228.7,97.6"/>
	<g>
		<path class="st0" d="M201.6,67.3c0,0,0-0.1-0.1-0.1c0-0.1,0-0.1-0.1-0.2c0,0,0,0,0,0c-0.1-0.3-0.4-0.6-0.6-0.9
			c-0.2-0.2-0.3-0.4-0.5-0.6c-0.4-0.5-0.8-0.8-1.3-1.1c-1.7-1-4-1-6.8,0.2c-0.1,0.4-0.2,0.8-0.3,1.2c0,0.1-0.1,0.3-0.1,0.4
			c-0.1,0.3-0.1,0.5-0.1,0.8c0,0.2-0.1,0.4-0.1,0.6c0,0.1,0,0.3,0,0.4c0,0.1,0,0.1,0,0.2c0,0.2,0,0.4-0.1,0.6c0,0.2,0,0.4,0,0.6
			c0,0.2,0,0.5,0,0.7c0,0.1,0,0.2,0,0.3c0,0.2,0,0.5,0,0.7c0,0,0,0,0,0c0,0.9,0.1,1.7,0.3,2.5c0.9,2.6,3.1,2.3,6.6-0.8
			c0.3-0.3,0.7-0.6,1-1c0.1-0.1,0.2-0.2,0.2-0.2c0.2-0.2,0.4-0.4,0.6-0.6c0.7-0.6,1.1-1.3,1.4-1.9C201.8,68.5,201.9,67.9,201.6,67.3
			C201.7,67.3,201.6,67.3,201.6,67.3z"/>
		<path class="st0" d="M142.3,149.1c-3,1.5,107.7,4.4,96.1-35.2c-0.2-0.2-0.5-0.5-0.7-0.7c-1.1-1.1-2.3-2.1-3.7-3
			c0.2,0,1.4-3.7,1.7-4.8c1.6-5,1.2-11.4-1.4-19.2c-1.1-0.5-2-1.1-2.8-1.9c-4.4-0.6-8.6-0.5-12.6,0.5c-0.2,0-0.4,0.1-0.5,0.1
			c-2.4-1.8-4.6-3.3-7-4.6c0,0,0.1,0,0.1,0c-1.2-0.5-2.4-0.9-3.7-1.4c1.9-0.8,3.7-1.8,5.4-3.1c1.2-0.9,2.3-1.8,3.3-2.8
			c3.3-3.3,5.5-7.3,6.2-12.3c0.6-4.1-0.1-8-1.9-11.8c-1.2-2.4-2.9-4.4-4.6-6.4c-2-2.4-3.9-5-5-8c-0.7-2.1-1-4.3-0.9-6.7
			c-0.2,0.4-0.3,0.6-0.3,0.8c-1.5,4.4-1.6,8.8,0.2,13.1c0.7,1.6,1.3,3.3,1.8,5c0.8,3,0,5.8-1.3,8.5c-2.1,4.2-5.2,7.1-9.7,8.5
			c-0.1-0.1-0.2-0.3-0.3-0.4c0,0,0,0-0.1,0c-1.7-1.7-4.5-1.7-8.9-0.3c-0.1,0-0.1,0-0.2-0.1c-15.2-4.6-31.7-7.1-49.1-7.3
			c-2,3.2-3.5,5.1-4.5,5.4l-0.7-0.4c-2.8-2.8-6.7-4.4-11.5-5.3c-3.6,2.1-5.8,4.7-6.6,7.8c0,0-0.1,0-0.1,0c0.4,2.1,2.4,2.5,4.2,3.3
			c0.5,0.2,1,0.4,1.6,0.6c0.8,0.3,1.6,0.7,2.1,1.4c10,12.5-0.6,22.5-2.6,23.4c-1.4,0.7-4.3,0.8-5.1,2.4l0.2,0
			c-0.1,0.9,0.2,1.6,1,1.7c-0.2,0.1-0.5,0.2-0.7,0.3c-3.1,1.2-6.1,2.4-9.1,3.6c8.5,0.4,14.5,3,18.3,8c0.6-0.3,1.1-0.5,1.6-0.7
			c-2.2,9.1-3.9,18.3-5.2,27.7c-6.8,2.8-11.2,6.5-13.2,11.2l-3,4.9C100,155,92.4,162,86.4,171.5c-7.4,11.7-10.9,24.7-12.7,38.2
			c-0.1,1-0.3,2-0.6,3.8c-1.4-2.4-2.4-4.2-3.5-6.2c-0.9,1.1-1.7,2-2.5,3c-8.8,11.9-13.6,25.4-15.5,40c-1,7.5-1,15.2-1.4,22.8
			c-0.1,1.1-0.1,2.3-0.4,3.4c-2.8,9.8-2.2,19.6,0.8,29.2c0.7,2.1,1.7,3.2,3.9,3.5c8,1.1,15.9,2.4,24.2,3.6c-1.2,0.6-2.3,1.2-3.9,2
			c0.7,0.4,1.1,0.7,1.5,0.8c13.7,4.3,27.7,6.6,42,5.1c6.7-0.7,13.2-2.3,19.8-3.6c3.2-0.6,6.5-1.3,10.2-2.1
			c-0.7-0.9-12-18.3-5.2-31.4c0.4-0.8,1.6-0.2,1.2,0.6c-4,10,2.1,18.9,7.4,27.4c9.3,0.8,13.8-0.3,22.5-2.8c-0.8,1.4-1.7,2.8-2.6,4.4
			c3.6,1.9,7.5,2.2,11.4,2.5c8,0.5,15.9-0.6,23.7-2.4c1.8-0.4,3.6-1.3,5.3-2.2c2.2-1.2,3.5-3.2,4.1-5.6c1-4.4-0.7-7-5.8-8.1
			c0.9,4.2,1.9,8.4-2,12.2c0.6-5.6-0.2-10.3-3.8-14.3c2.8-6.3,2.9-7.9,1-16.3c5.7,3.6,6.2,8.5,4.7,14.2c2.5,0.9,4.5,0.1,6.2-1.3
			c2.8-2.3,4.3-5.4,3.5-9.1c-0.8-3.6-3-6.1-6.7-7c-1.5-0.4-3.2-0.3-4.7-0.3c-1.1,0-2.2,0.2-3.4,0.3c0.7-5.7,0.7-5.7-1.8-12.1
			c3.5,1.4,5.3,4,6.2,7.5c1.1,0,2.2,0.1,3.7,0.1c-0.3-1.8-0.4-3.5-0.8-5.1c-0.6-2.7-2.4-4.5-5-4.9c-2.6-0.4-5.2-0.8-7.8-0.5
			c-5.1,0.6-10,1.7-15.3,2.7c2.5-2.7,5.7-4.5,8.9-6.5c-1.9-1.6-3.9-2.1-6.1-2.1c-3.7,0-7.2,1.2-10.5,2.8c-7.5,3.7-13.1,9.4-16.9,17
			c-3.3,0.7-6.7,1.4-10.3,2.2c0.1-0.7,0.2-1.2,0.3-2c-3.4-0.5-6.7-1-10-1.3c-6.3-0.6-12.2-2.3-17.8-5.4c-14.9-8.2-30.6-8.5-46.7-3.8
			c-3.1,0.9-6.2,2-10.1,3.3c1.2-1,1.8-1.6,2.5-2.1c12.1-8.1,25.2-11.3,39.6-7.3c1.8,0.5,2.9,0.2,4.2-1.1c7.2-7,10.9-15.6,12.2-25.3
			c0.8-6.1,0.3-9.3-2.3-18.3c8.4,9.2,4.7,28.2,2.4,33.1c-0.6,1.3,0,2.2,0.6,3.2c3.2,5.5,8.2,8.5,14.4,9.2c6.7,0.7,16.1-0.7,24.8-2.5
			c0.4-0.6,10.8-60.4-27.4-100.4c-1.6-1.6,1.6-20.6-5.2-23c-0.1,0-0.1,0-0.2-0.1c-0.5,0.1-0.9,0.3-1.3,0.4c0.2-4.9,0.5-9.9,1.1-14.9
			c0-0.4,0.1-0.8,0.1-1.2c0.1-0.4,0.1-0.9,0.2-1.3c0.1-0.6,0.2-1.2,0.3-1.8c0.1-0.4,0.1-0.7,0.2-1.1c0.1-0.7,0.2-1.4,0.3-2
			c0-0.3,0.1-0.6,0.1-0.9c0.1-0.7,0.2-1.5,0.4-2.2c0.1-0.4,0.1-0.8,0.2-1.3c0-0.1,0-0.2,0.1-0.3c0.2-0.1,0.4-0.2,0.6-0.3
			c2.7-1.3,4.8-2.7,6.4-4.1c1.2-1.1,2.2-2.1,2.8-3.2c0,0,0,0,0,0c0,0,0,0,0,0c0,0,0,0,0,0c-3.8,3.5-8,5.4-12.7,5.8
			c-1-1.3-2.3-2.5-3.8-3.6c-1.6-1.1-3.4-2.1-5.4-3.1c1.3-0.7,2.7-1.3,4-2c0.9-0.5,1.9-0.9,2.8-1.3c4.4-2.1,8.9-3.9,13.5-5.7
			c0,0,0,0-0.1,0c0,0,0,0,0.1,0c-1.8,0.6-3.5,1.2-5.2,1.8c-0.9,0.3-1.8,0.6-2.7,1c-0.2,0.1-0.4,0.1-0.6,0.2
			c-0.6,0.2-1.2,0.4-1.8,0.6c-0.7,0.3-1.5,0.5-2.2,0.8c-0.7,0.3-1.4,0.5-2.1,0.8c-0.1,0-0.2,0.1-0.2,0.1c-1,0.4-2.1,0.8-3.1,1.1
			c-0.8-0.2-1.3-0.4-1.6-0.7c-0.1-0.1-0.2-0.2-0.2-0.3c0,0,0,0,0,0c0,0,0-0.1,0-0.1c0,0,0,0,0,0c0-0.1,0-0.1,0-0.2
			c0.2,0,0.3-0.1,0.5-0.1c0.8-0.2,1.7-0.4,2.8-0.8l-0.1,0.4l-0.1,0.5c0,0,0,0,0,0l0,0c3.4-2.4,6.1-4.9,8.1-7.6
			c2.1-2.9,3.1-5.2,2.9-6.9c-0.9-5-3-9-6.3-11.9c-1.7-1.5-3.8-2.8-6.2-3.7c0,0,0,0,0,0c0,0,0,0,0,0c0.3,0.3,0.5,0.5,0.8,0.7
			c0.5,0.5,1,0.9,1.4,1.3c0,0,0,0,0,0c-0.2,0-0.4,0-0.6,0c-0.1,0-0.1,0-0.2,0c-0.2,0-0.3,0-0.5-0.1c-0.1,0-0.1,0-0.2,0
			c-0.2,0-0.3-0.1-0.5-0.1c-0.1,0-0.1,0-0.2,0c-0.2,0-0.3-0.1-0.4-0.2c0,0-0.1,0-0.1-0.1c-0.1-0.1-0.3-0.1-0.4-0.2c0,0-0.1,0-0.1,0
			c-0.1-0.1-0.3-0.2-0.4-0.3c0,0,0,0,0,0c-0.3-0.2-0.6-0.5-0.8-0.8c0-0.1,0.1-0.3,0.1-0.4c0-0.1,0-0.1,0-0.2
			c0.1-0.3,0.2-0.6,0.3-0.9c0,0,0-0.1,0-0.1c0-0.1,0.1-0.2,0.2-0.3c0,0,0-0.1,0.1-0.1c0.1-0.1,0.1-0.2,0.2-0.3c0,0,0.1-0.1,0.1-0.1
			c0.1-0.1,0.1-0.2,0.2-0.3c0,0,0.1-0.1,0.1-0.1c0.1-0.1,0.1-0.2,0.2-0.3c0,0,0.1-0.1,0.1-0.1c0.1-0.1,0.1-0.2,0.2-0.3
			c0,0,0.1-0.1,0.1-0.1c0.1-0.1,0.2-0.2,0.2-0.3c0,0,0.1-0.1,0.1-0.1c0.1-0.1,0.2-0.2,0.3-0.2c0,0,0.1-0.1,0.1-0.1
			c0.1-0.1,0.2-0.2,0.3-0.2c0,0,0.1-0.1,0.1-0.1c0.1-0.1,0.2-0.1,0.3-0.2c0,0,0.1-0.1,0.1-0.1c0.1-0.1,0.2-0.1,0.3-0.2
			c0.1,0,0.1-0.1,0.2-0.1c0.1-0.1,0.2-0.1,0.3-0.2c0.1,0,0.1-0.1,0.2-0.1c0.1-0.1,0.2-0.1,0.3-0.2c0.1,0,0.1-0.1,0.2-0.1
			c0.1,0,0.2-0.1,0.3-0.1c0.1-0.1,0.3-0.1,0.4-0.1c0.1,0,0.1,0,0.2-0.1c2,0.3,3.8,0.9,5.3,1.5c3.4,1.5,5.5,4,6.2,7.3
			c0.1-0.1,0.2-0.3,0.2-0.4c0.2-0.4,0.4-0.9,0.5-1.3c0-0.2,0.1-0.4,0.1-0.6c0-0.5,0.1-0.9,0-1.5c0.1-0.1,0.3-0.1,0.4-0.2
			c1.2-0.6,2.4-1.3,3.5-2.3c0.5-0.5,1.1-1,1.6-1.6c16.3,0.2,32.2,2.1,47.4,5.8c-0.5,0.9-0.8,2.2-0.8,3.9c0,0.5,0,1,0,1.6
			c0,0.7-0.1,1.3-0.2,1.8l0,0c-0.4,2.2-1.5,3.7-3.2,4.4c0.1-1.2-0.1-2.4-0.5-3.6c0-0.1,0-0.1-0.1-0.2c-0.3-0.8-0.8-1.7-1.3-2.5
			c-0.3-0.4-0.7-0.7-1.1-1c-1.2-0.9-2.5-1.2-3.8-0.8c-0.4,0.1-0.7,0.2-1.1,0.5c1.1-0.4,2.1-0.3,2.9,0.2c0.6,0.4,1.1,1.1,1.5,2
			c0.2,0.6,0.4,1.3,0.5,1.9c0.1,0.2,0.1,0.4,0.1,0.7l0,0c0.3,1.9,0.2,3.7-0.3,5.3c-0.5,1.4-2.4,1.9-5.5,1.4c-3-0.9-5.7-1.6-8.2-2.2
			c-2.2-0.6-4.1-1-6-1.4c-6.9-1.5-11.1-1.8-12.8-0.9c-0.1,0-0.1,0.1-0.2,0.1c-2.3,1.4-3.4,3.7-3.1,6.4c0,0.3,0.3,0.8,0.7,1.5
			c0.2,0.3,0.4,0.7,0.7,1c0.1,0.2,0.2,0.3,0.4,0.4c0.5,0.5,1.1,0.9,1.8,1.2c0.7,0.3,1.5,0.6,2.5,0.7c0,0,0,0,0,0c0,0,0,0,0,0
			c-0.2-0.1-0.5-0.2-0.7-0.4c-0.4-0.3-0.8-0.6-1.1-1c-0.4-0.4-0.7-0.9-1.1-1.4c-1.4-2.3-1.2-4.3,0.5-5.9c0.3-0.3,0.7-0.6,1.2-0.9
			c0.4-0.3,0.7-0.4,1-0.5c0.4-0.1,0.8,0,1.2,0.1c0.1,0.1,0.2,0.1,0.3,0.2c0,0.3,0,0.5,0,0.8c0,1.5,0.4,2.6,1.3,3.3l0,0c0,0,0,0,0,0
			c-0.4-0.7-0.3-1.4,0.1-2.1c0.3-0.5,0.8-0.9,1.5-1.4l2,0.7l0.6,0.2c-0.1,0.1-0.1,0.2-0.2,0.3c-0.8,1.2-1.1,2.3-1,3.3
			c0,0.3,0.1,0.6,0.2,0.9c1,2.2,2.9,3.3,5.8,3.3c0.1,0,0.3,0,0.4,0c0,0,0.1,0,0.1,0c-1.5-0.7-2.8-1.6-3.9-3.2
			c-0.9-1.1-0.5-2.4,1.2-3.6l9.9,2.8c0.5,0.2,0.6,0.6,0.3,1c-1.2,1.2-3,2.4-5.3,3.8h0c-1.3,0.7-2.7,1.5-4.3,2.4
			c-0.5,0.3-1,0.5-1.4,0.7c-0.1,0-0.1,0-0.2,0.1c-0.1,0.1-0.3,0.1-0.4,0.2c-0.1,0-0.2,0.1-0.3,0.1c-0.1,0-0.2,0.1-0.3,0.1
			c-0.1,0-0.2,0.1-0.3,0.1c-0.1,0-0.2,0-0.2,0.1c-0.1,0-0.2,0-0.2,0.1c-0.1,0-0.1,0-0.2,0c-0.1,0-0.1,0-0.2,0c0,0-0.1,0-0.1,0
			c-0.1,0-0.1,0-0.2,0c-0.1,0-0.1,0-0.2,0c0.6,0.1,1.2,0.1,1.9,0c0,0,0.1,0,0.1,0c0.1,0,0.3-0.1,0.4-0.1c0.2,0,0.4-0.1,0.5-0.2
			c0,0,0,0,0,0c0.4-0.1,0.8-0.3,1.3-0.5c0.9-0.4,1.8-0.8,2.7-1.3c1.5-0.7,2.9-1.5,4.1-2.3c0.8-0.5,1.5-1,2.2-1.5
			c2.4-1.9,3.9-2.7,4.3-2.3l0.9,0.3l1.6,0.6c0.7,0.3,1.4,0.3,2,0.1c0.5-0.3,0.8-0.7,0.9-1.2c0-0.1,0-0.1,0-0.2
			c0.2,0,0.4-0.1,0.5-0.1c1.4-0.3,2.5-1.1,3.5-2.4c0.1-0.2,0.2-0.3,0.4-0.5c0.8-0.5,1.5-1,2-1.5c0.5-0.6,0.9-1.1,1.1-1.7
			c0.1,0.1,0.2,0.2,0.3,0.3c0,0,0,0,0,0c0.7,0.7,1.8,0.8,3.1,0.3c0.1,0,0.3,0,0.4,0c0.4,0,0.8,0,1.2,0.1c0.3,0,0.5,0,0.8,0.1
			c0.3,0,0.6,0.1,0.9,0.1c0.3,0,0.5,0.1,0.8,0.1c0.3,0,0.6,0.1,1,0.2c0.2,0,0.5,0.1,0.7,0.1c0.4,0.1,0.8,0.2,1.1,0.2
			c0.3,0.1,0.6,0.1,0.9,0.2c0.3,0.1,0.7,0.2,1,0.3c0,0,0.1,0,0.1,0c0.7,0.2,1.4,0.4,2.1,0.7c0.2,0.1,0.4,0.1,0.6,0.2c0,0,0,0,0,0
			c0.1,0,0.2,0.1,0.2,0.1c0.4,0.1,0.8,0.3,1.2,0.5c0.1,0,0.1,0.1,0.2,0.1c0.4,0.2,0.9,0.4,1.3,0.6c0.1,0.1,0.2,0.1,0.3,0.2
			c0.3,0.1,0.6,0.3,1,0.5c0.1,0.1,0.3,0.1,0.4,0.2c0.4,0.2,0.8,0.4,1.2,0.6c0.2,0.1,0.3,0.2,0.5,0.3c0.3,0.1,0.5,0.3,0.8,0.4
			c0.2,0.1,0.4,0.2,0.6,0.3c0.3,0.2,0.6,0.3,0.9,0.5c0.3,0.2,0.5,0.3,0.8,0.5c0.2,0.1,0.4,0.3,0.6,0.4c0.2,0.1,0.5,0.3,0.7,0.4
			c0.2,0.1,0.4,0.3,0.6,0.4c0.2,0.1,0.4,0.3,0.6,0.4c0.2-0.1,0.4-0.1,0.6-0.2c0,0,0,0,0.1,0c0.1,0,0.3-0.1,0.4-0.1
			c0.1,0,0.3-0.1,0.4-0.1c0.1,0,0.2-0.1,0.4-0.1c0.2,0,0.3-0.1,0.5-0.1c0.1,0,0.2,0,0.3-0.1c0.2,0,0.3-0.1,0.5-0.1
			c0.1,0,0.2,0,0.3-0.1c0.2,0,0.4-0.1,0.5-0.1c0.1,0,0.2,0,0.3,0c0.2,0,0.5,0,0.7-0.1c0,0,0.1,0,0.1,0c0.4,0,0.8,0,1.3-0.1
			c0.4,0,0.8,0,1.3,0c0,0,0,0,0,0c0.3,0,0.5,0,0.8,0.1c0,0,0,0,0,0c0.3,0,0.5,0.1,0.8,0.1c0,0,0,0,0,0c1.4,0.2,2.8,0.5,4.2,1
			c1,1.9,1.8,3.9,2.3,5.9c0.6,2.5,0.9,5,0.9,7.7c0,1.7-0.2,3.5-0.6,5.3c-0.6,2-1.6,3.6-2.8,4.9c-0.8,0.8-1.8,1.5-2.8,2.1
			c-9.4-3-19,1.6-28.9,13.6c-7.3-2-11.3-5.5-12.1-10.5c0,0,0,0,0,0c-0.4-2.3-2.6-7.4-1.6-10.3c5.1-3.3,9.1-5.9,12.6-7.9
			c8.7-5.2,14.2-7.2,24.5-9.6c0,0,0,0,0,0c-3.9,0.9-9.7-0.3-26.8,9c-3.5,1.9-7.4,4.2-11.9,7c-0.2,0.1-0.3,0.3-0.5,0.4
			c-1.4,3.4,0.8,9.5,1.4,13.1c-7.3-1.6-15.7,0.2-25.2,5.4c-11.5-3.9-16.6-8.5-15.2-13.5c0,0,0,0,0,0c0,0,0,0,0,0c0,0,0,0,0,0
			c-1.9,3.3-0.9,6.8,3.2,10.3c0,0,16.6,10.4,20.3,12.2C176.6,134.9,150.7,144.9,142.3,149.1z M126.7,306.2c0,0.2-0.1,0.4-0.1,0.7
			c0.1,1.4,1.3,2.4,2.7,2.4c1.4-0.1,2.4-1.3,2.3-2.7c-0.1-1.4-1.3-2.4-2.7-2.3c-0.1,0-0.2,0-0.4,0.1c0.6-0.3,1.3-0.5,2-0.6
			c2.6-0.2,4.9,1.8,5.1,4.5c0.2,2.6-1.8,4.9-4.5,5.1c-2.6,0.2-4.9-1.8-5.1-4.5C126.1,307.8,126.3,306.9,126.7,306.2z M201.6,69.1
			c-0.2,0.6-0.7,1.3-1.4,1.9c-0.2,0.2-0.4,0.4-0.6,0.6c-0.1,0.1-0.2,0.2-0.2,0.2c-0.4,0.3-0.7,0.7-1,1c-3.5,3.1-5.7,3.4-6.6,0.8
			c-0.1-0.8-0.2-1.7-0.3-2.5c0,0,0,0,0,0c0-0.2,0-0.5,0-0.7c0-0.1,0-0.2,0-0.3c0-0.2,0-0.5,0-0.7c0-0.2,0-0.4,0-0.6
			c0-0.2,0-0.4,0.1-0.6c0-0.1,0-0.1,0-0.2c0-0.1,0-0.3,0-0.4c0-0.2,0.1-0.4,0.1-0.6c0-0.3,0.1-0.5,0.1-0.8c0-0.1,0.1-0.3,0.1-0.4
			c0.1-0.4,0.2-0.8,0.3-1.2c2.8-1.2,5-1.3,6.8-0.2c0.5,0.3,0.9,0.6,1.3,1.1c0.2,0.2,0.3,0.4,0.5,0.6c0.3,0.3,0.5,0.6,0.6,0.9
			c0,0,0,0,0,0c0,0.1,0.1,0.1,0.1,0.2c0,0,0,0.1,0.1,0.1c0,0,0,0,0,0C201.9,67.9,201.8,68.5,201.6,69.1z M203.1,123
			c5.7-5.7,11.4-8.9,16.8-9.6c1.2-0.2,2.4-0.2,3.6-0.1c-0.3,0.8-0.6,1.6-1,2.3c-3.3,6.5-8.9,9.1-17.1,7.9c0,0,0,0,0,0
			C204.7,123.4,203.9,123.3,203.1,123C203.1,123.1,203.1,123,203.1,123z"/>
	</g>
	<path class="st0" d="M252.6,190.9c4.3,0.9,7.8,4.6,7.9,8.6c0.4,7.8-6.8,10.6-13.3,10.6c-4.8,0-9.1-1.8-12.2-4l1.3-1.9
		c3,2.3,6.7,3.5,10.8,3.5c5.6,0.1,11.1-2.4,10.9-8c-0.1-3-2.3-5.3-5.2-6.6c-2.3-0.9-5.4-0.9-8.2-0.9h-1.8v-2.3h2
		c2.4,0.1,5.1-0.1,7.1-0.8c2.5-1.1,4.8-3.6,4.7-6.5c-0.2-8.7-14.6-8.5-19.3-3.9l-1.3-1.8c6.2-6.1,23-5,23.2,5.6
		C259.3,186.3,256.6,189.9,252.6,190.9"/>
	<path class="st0" d="M296.5,209.5l-0.7-3.8c-3.7,3.6-8.1,4.2-11.4,4.3c-9.8,0.1-14.8-6-14.8-11.6c0-5.7,4.9-11.7,15.4-11.8
		c2.5,0,7.1,0.8,10.7,3v-3.1c0-8.2-5.6-10.6-11.7-10.6c-3.6,0-6.9,1-10.2,3l-1.2-1.8c3.3-2.3,7.5-3.5,11.4-3.5
		c7.3,0,14.2,3.4,14.2,12.9v23.1H296.5z M295.8,191.8c-3.5-2.2-7.5-3-10.6-3c-8.7,0-13,4.9-13,9.6c0,4.6,4.2,9.3,12.3,9.3
		c3.8,0,8.5-1.4,11.3-4.8V191.8z"/>
	<path class="st0" d="M312.5,173.8h13.8c5.7,0,12.7,1.8,12.8,8.9c0,3.9-2.6,7.3-6.8,8.3c5,1,7.9,4.6,8,8.5c0.3,7.7-7,9.9-13.4,10
		h-14.4V173.8z M315,175.9v14h11.7c1.8,0,3.7-0.1,5.4-0.8c2.5-1.1,4.7-3.5,4.6-6.5c-0.1-5.4-5.8-6.8-10.3-6.8H315z M315,192v15.4
		h11.9c4.9,0,11.2-1.9,11-7.8c-0.1-3-2.3-5.6-5-6.6c-2-0.8-4.5-1-7-1H315z"/>
	<polygon class="st0" points="348.5,173.8 376.2,173.8 376.2,176.1 363.6,176.1 363.6,209.5 361,209.5 361,176.1 348.5,176.1 	"/>
	<path class="st0" d="M389,206v17.7h-2.5v-49.9h2.1l0.4,4.4c3.2-4.1,6.9-4.9,10.6-4.9c10.6,0.1,16.1,9.2,16.1,18.1
		c0,8.9-5.6,18.1-16.6,18.2C395.8,209.7,391.9,208.5,389,206 M388.9,181.3V203c2.5,2.9,6.6,4.5,10.9,4.3c8.5-0.6,13.3-8.7,13.3-15.9
		c0-7.7-4.8-15.5-14.3-15.7C394.9,175.7,391.7,177.3,388.9,181.3"/>
	<path class="st0" d="M452,209.5l-0.7-3.8c-3.7,3.6-8.1,4.2-11.4,4.3c-9.8,0.1-14.8-6-14.8-11.6c0-5.7,4.9-11.7,15.4-11.8
		c2.5,0,7.1,0.8,10.7,3v-3.1c0-8.2-5.6-10.6-11.7-10.6c-3.6,0-6.9,1-10.1,3l-1.2-1.8c3.3-2.3,7.5-3.5,11.4-3.5
		c7.3,0,14.2,3.4,14.2,12.9v23.1H452z M451.2,191.8c-3.5-2.2-7.5-3-10.6-3c-8.7,0-13,4.9-13,9.6c0,4.6,4.2,9.3,12.3,9.3
		c3.8,0,8.5-1.4,11.3-4.8V191.8z"/>
	<polygon class="st0" points="469,160.2 471.9,160.2 467.5,173.1 465.6,173.1 	"/>
	<polygon class="st0" points="486,173.8 486,192.8 505.5,173.8 508.6,173.8 493.4,188.7 509.6,209.5 506.8,209.5 491.7,190.4 
		486,195.6 486,209.5 483.5,209.5 483.5,173.8 	"/>
	<polygon class="st0" points="285.3,262.6 285.3,229.7 287.9,229.7 287.9,264.8 239.4,264.8 239.4,229.7 241.9,229.7 241.9,262.6 
		262.4,262.6 262.4,229.7 264.9,229.7 264.9,262.6 	"/>
	<polygon class="st0" points="290.3,267.2 237,267.2 237,227.3 244.3,227.3 244.3,260.2 260,260.2 260,227.3 267.3,227.3 
		267.3,260.2 282.9,260.2 282.9,227.3 290.3,227.3 	"/>
	<path class="st0" d="M327.4,258.5l1.7,1.5c-3.1,3.4-7.7,5.4-12.5,5.4c-10.9,0-17.6-9-17.5-18.4c0-9.8,6.8-17.6,17.5-17.7
		c9.4-0.1,17,7.2,17,16.8c0,0.6,0,1.3-0.1,1.8c0,0.1,0-0.1,0,0h-32c0.3,8.5,6.4,15.2,15.1,15.2C320.1,263.1,324.8,261.6,327.4,258.5
		 M331.3,245.7c0-9.3-7.6-14.1-14.8-14.3c-8.1,0.1-14.6,5.4-15,14.3H331.3z"/>
	<path class="st0" d="M316.5,267.7c-5.4,0-10.2-2-13.9-5.6c-3.9-3.9-6.1-9.4-6-15.2c0-11.5,8.3-20,19.8-20h0.1
		c5.2,0,10.1,2,13.7,5.6c3.6,3.6,5.6,8.4,5.6,13.7c0,0.6,0,1.3-0.1,1.9v2.3l-31.7,0c1.2,6.1,6.1,10.4,12.4,10.4c2.8,0,6.9-1.2,9-3.7
		l1.6-1.9l5.3,4.7l-1.7,1.8C327.2,265.5,322,267.7,316.5,267.7 M304.2,243.3h24.5c-1.2-6.3-6.9-9.3-12.2-9.5
		C310.1,233.9,305.5,237.6,304.2,243.3"/>
	<path class="st0" d="M363.5,216.7v12.5c10.9,0,18.9,7.7,18.9,18.1c0,10.5-7.5,18-18.9,18v13H361v-13c-10.8,0-19.2-7.6-18.9-18
		c-0.1-10.4,8-18.1,18.9-18.1v-12.5H363.5z M361,263.3v-32c-9.3,0-16.6,6.9-16.4,16C344.3,256.4,351.8,263.3,361,263.3 M363.5,263.3
		c9.7,0,16.4-6.7,16.4-16c0-9.1-7-16-16.4-16V263.3z"/>
	<path class="st0" d="M365.9,280.7h-7.3v-13.1c-5.3-0.5-10-2.7-13.5-6.2c-3.6-3.7-5.6-8.8-5.4-14.1c-0.1-5.4,1.9-10.4,5.6-14.2
		c3.4-3.5,8.1-5.6,13.3-6.1v-12.6h7.3v12.6c10.9,1.1,18.9,9.5,18.9,20.4c0,11.2-7.7,19.3-18.9,20.3V280.7z M365.9,233.9v26.8
		c7-0.9,11.6-6.1,11.6-13.4C377.5,240.2,372.7,234.9,365.9,233.9 M358.6,233.9c-3.1,0.5-5.9,1.9-8,4c-2.4,2.5-3.7,5.8-3.6,9.3
		c-0.1,3.6,1.2,6.9,3.6,9.4c2.1,2.2,4.9,3.6,8,4.1V233.9z"/>
	<path class="st0" d="M417.6,264.8l-0.7-3.7c-3.7,3.5-8,4.2-11.2,4.2c-9.6,0.1-14.5-5.9-14.5-11.4c0-5.6,4.8-11.5,15.2-11.6
		c2.5,0,7,0.8,10.5,2.9v-3c0-8-5.5-10.4-11.5-10.4c-3.5,0-6.8,1-10,3l-1.2-1.8c3.3-2.3,7.3-3.5,11.2-3.5c7.2,0,13.9,3.3,13.9,12.7
		v22.7H417.6z M416.8,247.3c-3.5-2.2-7.3-2.9-10.5-2.9c-8.5,0-12.7,4.8-12.7,9.4c0,4.6,4.1,9.1,12,9.1c3.7,0,8.4-1.4,11.2-4.7V247.3
		z"/>
	<path class="st0" d="M405.5,267.7c-6.7,0-10.7-2.6-12.9-4.7c-2.5-2.5-3.9-5.7-3.9-9.1c0-6.6,5.5-13.9,17.5-14
		c2.2,0,5.2,0.5,8.1,1.5c-0.2-3.3-1.5-7.3-9.1-7.3c-3.1,0-5.9,0.9-8.7,2.6l-2,1.3l-3.7-5.7l1.9-1.3c3.6-2.5,8-3.9,12.6-3.9
		c10.1,0,16.3,5.8,16.3,15.1v25.1h-6.1l-0.4-1.9c-4,2.3-8,2.4-9.5,2.4H405.5z M406.4,246.8c-7.1,0-10.3,3.6-10.3,7
		c0,3.2,3,6.7,9.6,6.7c2.6,0,6.3-0.9,8.7-3.2v-8.6C411.2,247.1,408.1,246.8,406.4,246.8"/>
</g>
</svg>
