<svg version="1.1" id="Слой_2" xmlns="http://www.w3.org/2000/svg" xmlns:xlink="http://www.w3.org/1999/xlink" x="0px" y="0px"
	 viewBox="0 0 112 112.5" style="enable-background:new 0 0 112 112.5;" xml:space="preserve">
<path  d="M56.2,0.6c-30.9,0-56,25.1-56,56c0,30.9,25.1,56,56,56c30.9,0,56-25.1,56-56C112.2,25.6,87.1,0.6,56.2,0.6z
	 M70.9,51.5l-0.5,5.2h-9.8c0,14.9,0,33.2,0,33.2H47.3c0,0,0-18.1,0-33.2h-6.6v-5.3v-8h6.6v-6c0-5.4,2.6-13.9,14-13.9l10.3,0V35
	c0,0-6.2,0-7.4,0c-1.2,0-2.9,0.6-2.9,3.2v5.3h10.5L70.9,51.5z"/>
</svg>
