<svg version="1.1" id="Режим_изоляции"
	 xmlns="http://www.w3.org/2000/svg" xmlns:xlink="http://www.w3.org/1999/xlink" x="0px" y="0px" viewBox="0 0 356 213"
	 style="enable-background:new 0 0 356 213;" xml:space="preserve">
<g>
	<polygon points="319.9,33.9 321.5,35.5 323.7,33.5 322.6,31.9 321,32.3 319.9,33.9 	"/>
	<polygon points="323.4,35.3 324.7,36.3 326.8,35.2 327.4,32.6 325.8,32.2 323.4,35.3 	"/>
	<polygon points="329.2,35 331.3,36.9 335.6,34.8 334.8,32.3 331.8,31.1 329.3,33.2 329.2,35 	"/>
	<polygon points="333.8,30.4 335.6,31.3 336.8,29.9 335.3,28.5 333.8,30.4 	"/>
	<polygon points="341.8,25.3 342.4,27.3 344.2,26.6 343.5,24.2 341.8,25.3 	"/>
	<polygon points="335.7,20.6 336.7,21.5 338,20.5 336.1,18.7 335.1,19.5 335.7,20.6 	"/>
	<polygon points="330.2,21.8 330.5,23.3 332.6,24.6 333.8,22.8 332.7,20.6 330.2,21.8 	"/>
	<polygon points="326.3,23.4 330.1,26.9 329.6,29.8 325.8,28.5 323.2,25.5 326.3,23.4 	"/>
	<polygon points="337,34.5 337.5,36.7 341.8,36.6 343.5,33.7 342.1,31.4 340.2,34 337.5,33.3 337,34.5 	"/>
	<polygon points="325.4,39.5 326.5,41.1 327.5,39.8 326.5,38.1 325.4,39.5 	"/>
	<polygon points="314.8,28.4 316.5,31.3 318.6,29.4 317.6,27 314.8,28.4 	"/>
	<polygon points="319.8,27.5 320.2,29.2 321.3,28.4 320.4,26.5 319.8,27.5 	"/>
	<polygon points="318,17.8 319.3,19.7 320.5,18.4 318.5,16.6 318,17.8 	"/>
	<polygon points="306,14.2 306.6,16.6 308.4,18 311.1,17.8 312.7,19.2 313.7,17.9 311.7,16.1 309.9,16.7 306,14.2 	"/>
	<polygon points="306.5,20.4 306.3,22.5 308.2,24.4 310.2,26.9 310.8,25.7 310.3,23.4 312.9,22.8 316.2,23.9 
		318.4,21.8 316.4,19.6 314.8,19 313.1,20.3 310.8,20.6 309.4,21.2 306.5,20.4 	"/>
	<polygon points="310.7,28.4 310.3,29.8 311.8,30.7 311.9,28.8 310.7,28.4 	"/>
	<g>
		<polygon points="76.9,121.7 75.8,122.7 75.1,124.5 75.2,130.6 75.2,130.8 75,130.9 70.5,132.3 70.2,134.4 70.2,134.6 
			70,134.7 68.5,134.8 68.1,136.3 68.1,136.3 68.1,136.4 67.4,137 68.9,138.6 71.8,140.7 77.5,142.2 77.5,142.2 77.6,142.2 
			79.5,143.9 84.9,144.4 85.3,142.4 85.3,142.3 85.4,142.2 86.4,141.4 86.6,141.3 86.7,141.4 89.3,143.2 89.3,143.2 89.4,143.3 
			89.9,145.6 92.9,148.1 95.5,147.9 95.6,147.9 95.7,148 99.8,151.6 100,149.7 99.3,147.5 97.4,145.4 97.3,145.3 97.4,145.2 
			99.1,142.4 98.8,139.4 97.2,136.3 97.2,136.2 97.2,136.1 97.6,133.9 96.1,133.7 95.9,133.7 95.9,133.5 95.5,132 92.7,132 
			92.6,132 92.5,131.8 91.7,130.4 91.6,130.2 91.7,130.1 92.4,128.8 92.3,127 90.1,126.3 89.5,127.2 89.4,127.3 89.3,127.3 
			87.8,127.1 87.7,127.1 87.7,127 86.2,125.7 83.8,126 83.7,126.1 83.6,125.9 82.2,123.5 80.7,122.8 78,124.1 77.7,124.3 77.7,124 
			76.9,121.7 		"/>
		<polygon points="105.1,156.9 110.4,160.4 112.5,160.2 112.6,160.2 112.7,160.3 115.2,163.4 115.3,163.5 115.3,163.6 
			114.1,168 117.3,171.1 125.9,171.5 126,171.5 126,171.6 131.7,175 131.8,175.1 131.8,175.1 135.6,182 141.6,185.5 145.7,184.5 
			145.9,184.5 146,184.6 147.7,186.3 150.6,183.4 148.1,181 147.9,180.8 148,180.7 148.6,179.1 148.7,178.9 148.9,178.9 
			152.7,179.1 156.7,176.4 156.7,173.7 153.9,172.3 153.7,172.2 153.8,172 154.7,169.6 152.1,168.8 150.4,169.5 150.2,169.6 
			150.1,169.4 148.1,164.2 143,164.1 142.9,164.1 142.9,164 139.7,160.3 136.6,158.4 136.6,158.4 136.6,158.4 133.7,155.6 
			133.7,155.6 133.7,155.6 125.1,145.9 125,145.8 125.1,145.7 125.7,140.9 125.7,140.8 125.8,140.7 128.9,137.1 126.8,136.4 
			126.7,136.4 126.7,136.2 126.7,132.9 124.1,132.9 122.4,134.6 122.3,134.7 122.2,134.7 118.6,134.5 118.5,134.5 118.4,134.4 
			116.7,132.7 115.1,132.6 112.7,133.4 108.9,136.3 106.3,141.6 106.3,141.8 106.1,141.7 101.9,141.4 99.6,142.7 97.9,145.3 
			99.6,147.2 99.7,147.2 99.7,147.3 100.4,149.7 100.5,149.7 100.4,149.7 100.2,151.9 104.3,151.8 104.6,151.8 104.6,152.1 
			105.1,156.9 		"/>
		<polygon points="76.2,109.7 73.7,110 69.6,113.1 67.3,116.4 62.7,116.1 60,120.7 56.7,121.1 56.6,124.6 51.8,127.8 
			52,132.3 54,134.8 51.8,137.5 52.3,139.8 55.4,140.5 56.1,143.8 55.1,145.6 55.3,145.6 57.3,145.1 57.4,145 57.5,145.1 
			58.6,145.7 62.6,144.9 64.2,142.4 65.1,138.7 65.1,138.7 65.1,138.6 67.7,136.1 68.1,134.5 68.1,134.3 68.3,134.3 69.8,134.2 
			70.1,132.1 70.1,132 70.2,131.9 74.7,130.5 74.6,124.5 74.6,124.4 74.6,124.4 75.3,122.4 75.4,122.4 75.4,122.3 76.9,121.2 
			78.3,116.7 76.4,113.6 76.4,113.5 76.4,113.5 76.2,109.7 		"/>
		<polygon points="101,103.3 96.7,103.5 91.3,105.4 91,109.7 91.6,111.7 90,113 88.8,110 86.7,109.9 83.5,106.7 
			79.4,109.3 76.7,109.7 76.9,113.4 78.8,116.5 78.8,116.6 78.8,116.7 77.3,121.3 78,123.6 80.6,122.3 80.7,122.2 80.8,122.3 
			82.5,123.1 82.6,123.1 82.6,123.2 83.9,125.5 86.2,125.2 86.3,125.2 86.4,125.3 87.9,126.6 89.2,126.8 89.8,125.9 89.9,125.8 
			90.1,125.8 92.6,126.6 92.7,126.7 92.7,126.8 92.9,128.8 92.9,128.9 92.9,129 92.2,130.2 92.9,131.5 95.7,131.6 95.9,131.6 
			95.9,131.7 96.3,133.2 97.9,133.4 98.2,133.5 98.1,133.7 97.7,136.1 99.3,139.3 99.3,139.3 99.3,139.3 99.6,142.1 101.7,141 
			101.8,140.9 101.9,140.9 106,141.2 108.4,136.1 108.5,136 108.5,136 112.5,133 112.5,133 112.5,133 115,132.1 115,132.1 
			115.1,132.1 118.5,132.2 120.3,130.8 117,126.4 114.8,126 114.7,126 114.7,125.9 113.7,122.5 112.3,122.6 112.1,124.7 
			112.1,124.9 111.8,124.9 110.7,124.6 110.6,124.6 110.6,124.5 109.8,123.1 108.7,123.4 108.6,125.8 108.6,126.1 108.3,126 
			106.8,125.7 106.7,125.7 106.6,125.6 105.8,123.8 101.7,123.9 101.6,123.9 101.5,123.8 99.8,121.4 95.9,121.4 95.8,121.4 
			95.8,121.3 94.7,119.9 94.6,119.8 94.7,119.6 101.4,111.6 101,103.3 		"/>
		<polygon points="158.5,87.1 159.6,80.4 161.1,82.6 160.5,87.3 162.4,91.5 163,98.4 165.7,102.6 166.4,106.9 
			176.5,113 182.8,111.8 187.5,105.4 188.8,98.6 186.7,90.6 187,78.8 185.7,74.5 182.4,69.3 181.9,65.2 183.3,64.3 185.3,67.1 
			187.2,65.8 185.4,62.2 178.5,57.5 168.6,56.6 166.6,58 161.7,60.9 161.8,64.8 158.4,70.3 151.7,70.4 149.5,73.2 154.4,79.7 
			154.5,79.8 154.4,79.9 153.7,83.8 157.7,85.8 157.8,85.8 157.8,85.9 158.5,87.1 		"/>
		<polygon points="146.3,114.2 146,112.1 146.4,110.3 144.7,107.9 146.3,105 151.1,99 155.1,97.7 157.5,93.7 
			158.4,87.8 157.4,86.2 153.3,84.1 153.1,84 153.2,83.9 153.9,79.9 149.2,73.6 143.6,80.6 140.8,80.5 137.1,83 134.5,82.8 
			133.5,85.5 132.3,87.7 130.2,89.2 131.4,91.5 129.9,92.9 125.1,92.1 123.8,96.7 122.9,103.6 120,104.8 107.2,103.1 101.5,103.3 
			101.6,107 104.8,106.4 104.8,106.4 104.8,106.4 108.9,107 109,107 109.1,107.1 110.7,109.4 110.8,109.4 110.8,109.5 110.7,112.4 
			110.7,112.5 110.6,112.6 109.2,114.2 109.4,117.4 109.4,117.4 109.4,117.4 109,120.2 109,120.3 108.9,120.4 106.8,122 
			106.2,123.6 107,125.3 108.1,125.5 108.3,123.2 108.3,123.1 108.4,123 109.8,122.6 110,122.6 110.1,122.7 110.9,124.2 
			111.6,124.3 111.9,122.4 111.9,122.2 112.1,122.2 113.8,122 114,122 114.1,122.2 115.1,125.6 117.2,126 117.2,126 117.3,126.1 
			120.6,130.3 121,129 120.7,124.9 120.7,124.8 120.7,124.8 122.2,121.9 122.2,121.9 122.3,121.9 127.6,116.1 127.7,116 127.8,116 
			130.9,116.8 131.1,116.8 131.1,116.9 132.1,118.7 132.1,118.8 132.1,118.8 131.6,122 131.6,122.1 131.6,122.1 129.3,124.3 
			125.4,128.7 124.3,132.5 126.9,132.4 127.2,132.4 127.2,132.7 127.2,136 129.3,136.7 130.8,135.1 130.8,135 131,135 132.9,135 
			133.6,131.5 133.6,131.4 133.7,131.4 137.3,127.6 136.4,126.2 136.4,126.2 135.3,124.2 135.2,124.1 135.2,124 136,121.1 
			136.1,121.1 136.1,121 139.6,117.5 139.9,115.7 140,115.4 140.2,115.5 142.6,116.1 144.1,116.4 145.9,114.4 146,114.4 146,114.4 
			146.3,114.2 		"/>
		<polygon points="201.3,140.7 196.5,146.9 198.1,149.5 198.2,149.6 198.2,149.7 197.1,151.8 197.9,155.1 197.9,155.2 
			197.7,155.3 194.7,157.1 194.5,157.2 194.4,157.1 190.5,154.5 186.7,154.7 186.5,154.7 186.4,154.5 185.8,151.7 176.2,144.3 
			175.1,145.9 177.8,150.3 177.9,150.4 177.8,150.5 177,154.2 177,154.3 177,154.3 174.7,156.6 175.7,158.4 175.7,158.4 
			175.7,158.5 175.9,160.4 175.9,160.7 175.7,160.7 171.9,160.8 169,164.7 168.8,167.1 172.4,168.5 173.9,166.7 173.9,166.7 
			174,166.7 177.4,165.5 177.6,165.5 177.7,165.7 179.8,169.9 179.8,170 179.7,170.2 171.9,176.4 171.7,179.8 171.7,179.9 
			171.6,180 168.9,182.1 168.8,182.2 168.6,182.1 165.2,180.7 162.8,182.7 155.5,190.9 156.2,192.6 156.2,192.6 156.2,192.7 
			156.2,198.1 157.4,199 160.4,195.6 160.6,195.5 160.7,195.5 169.9,199.1 173.1,197.6 174.9,193.2 175,193 175.2,193 181.3,193.6 
			181.4,193.6 181.4,193.7 186,198.8 190.9,201.3 197.9,202.1 200.6,200.6 200.8,200.5 200.9,200.6 208.4,206.8 213,207.4 
			221.3,193.1 221.4,193.1 221.4,193.1 227.6,187.5 228.6,184.1 228.6,184 228.7,184 234.9,178.4 235.1,178.2 235.2,178.5 
			236.5,180.5 240,180.3 244,176.7 244.1,176.6 244.2,176.6 250.4,176.5 255,172.8 255.1,172.7 255.2,172.7 264.1,172.3 
			266.5,169.6 266.5,169.5 266.6,169.5 270.1,168.3 272.2,165.1 270.9,160.5 270.8,160.4 270.9,160.3 272.5,157.4 270.8,157.1 
			269.7,158.8 269.6,158.9 269.5,158.9 267.4,158.9 264.6,161.4 264.5,161.5 264.4,161.5 261.1,160.7 258.6,163.6 258.5,163.7 
			258.4,163.7 251,164.3 250.9,164.3 250.8,164.3 218.5,141.2 215.4,142.2 215.3,142.2 215.3,142.2 201.3,140.7 		"/>
		<polygon points="151.9,105.2 152.9,106.3 154.3,105.4 153.9,103.8 152.9,103 152,104.1 151.9,105.2 		"/>
		<polygon points="249,108.8 250.7,107.6 250.7,104.9 248.7,104.4 249,108.8 		"/>
		<polygon points="275.9,148 273.4,143.4 266.9,136.4 261.9,136.4 261.3,139.2 261.1,143.5 257.6,145.6 255.6,145.2 
			254.3,147.2 251.9,145.2 254.7,142.6 254.7,139.8 245.5,139.6 240.9,136.2 233.8,136.9 231.4,133.5 235.5,133.1 237.8,128.8 
			232.1,127.5 229.5,130.6 228.2,128.3 213.9,124.8 212,126.6 210,124.6 202.4,129.1 198.5,125.3 199.6,121.9 198.5,118.5 
			203.2,116.9 207.5,119.9 209.6,116.5 209.4,110.4 203.7,104.1 202,110.3 194.2,115.4 193.5,119.3 189.8,122.6 191.2,130.5 
			195.3,136.6 199.1,137.1 199.2,137.1 199.3,137.2 201.3,140.2 215.3,141.7 218.4,140.7 218.5,140.7 218.6,140.7 251,163.8 
			258.3,163.3 260.8,160.3 260.9,160.2 261.1,160.2 264.4,161 267.1,158.5 267.2,158.4 267.3,158.4 269.3,158.4 270.5,156.7 
			270.6,156.6 270.7,156.6 272.8,157 274.4,154 272.7,150.9 272.6,150.7 272.7,150.6 275.9,148 		"/>
		<polygon points="264.4,134.5 261.5,134.8 259.2,131 259.8,127.4 263.5,126.5 264.6,130.5 264.4,134.5 		"/>
		<polygon points="219.6,116.5 221.8,119.4 227.1,119.6 227.7,117.6 227.4,114.6 224.6,111.6 220.6,113 219.6,116.5 		
			"/>
		<polygon points="258.9,120.4 260.1,108.8 261.1,104.4 264.9,100.3 269.4,98.8 271.3,96.2 270.2,93 273.6,95.1 
			276.6,94.8 277.4,92.5 279.4,92.6 279.5,90.4 282,91.3 282.4,89 284.2,91 285.6,89.1 286.1,86.4 288.7,88.2 290.4,86.7 
			293.9,87.5 296.8,84.1 319,83.6 324.4,80.7 325,76.8 322.7,74 317.4,75.4 316.4,77.4 307.3,76.6 303.3,73.3 299.8,75.3 
			296.3,73.7 291.9,76.6 288.2,76.6 286.4,78.2 283.9,75.6 282.7,80.9 280,81.1 279.7,83.2 272.8,85.3 270.4,84.3 268.8,86.1 
			270.8,88.1 268.1,90.7 263.6,88.8 263,92.2 259.8,92 259.7,94.6 255.3,96.9 252.5,96 249.5,98.3 249.3,101.7 252.2,104.6 
			252.4,109 249.6,111.7 251.7,116.5 254.2,116.8 254.3,118.9 257.1,119.5 258.9,120.4 		"/>
		<polygon points="189.3,123 185.4,126.6 183.6,123.2 186.2,122.7 182.9,116.5 178,117.3 173,115.6 166.9,116.5 
			163.5,125 161,123.6 157.5,115.4 158,109 152.3,109.6 150.7,115.1 153.2,118.1 150.8,121.2 147,119.1 146.4,114.7 146.3,114.8 
			144.4,116.8 144.3,117 144.1,116.9 142.5,116.6 142.5,116.6 140.3,116 140.1,117.7 140.1,117.8 140,117.8 136.5,121.3 
			135.7,124.1 136.8,125.9 137.8,127.5 137.9,127.7 137.7,127.8 134.1,131.7 133.3,135.3 133.2,135.5 133,135.5 131.1,135.5 
			129.5,137.2 129.5,137.2 126.2,141 125.6,145.7 134,155.3 136.9,158 140,159.9 140,159.9 140,160 143.2,163.6 148.2,163.7 
			148.4,163.8 148.5,163.9 150.5,169 152,168.3 152.1,168.2 152.2,168.3 155.1,169.2 155.3,169.3 155.2,169.6 154.3,171.9 
			157,173.3 157.2,173.4 157.2,173.5 157.2,176.3 160,175.9 160.1,175.8 160.2,175.9 162.5,178.7 162.5,178.7 162.5,178.8 
			162.8,182.1 165,180.3 165.1,180.2 165.3,180.2 168.7,181.6 171.2,179.7 171.4,176.2 171.4,176.1 171.5,176.1 179.2,169.9 
			177.3,166.1 174.2,167.1 172.6,169 172.5,169.1 172.3,169.1 168.5,167.4 168.3,167.4 168.3,167.2 168.5,164.6 168.5,164.5 
			168.5,164.5 171.6,160.5 171.7,160.4 171.8,160.4 175.4,160.2 175.3,158.6 174.2,156.7 174.1,156.5 174.2,156.4 176.6,154 
			177.3,150.5 174.7,146 174.6,145.9 174.7,145.8 175.9,143.8 176.1,143.6 176.3,143.8 186.1,151.4 186.2,151.4 186.2,151.5 
			186.8,154.2 190.5,154.1 190.6,154.1 190.7,154.1 194.6,156.6 197.3,155 196.6,151.8 196.6,151.7 196.6,151.6 197.7,149.6 
			196,147 195.9,146.9 196,146.7 200.9,140.4 198.9,137.6 195.2,137.1 195.1,137.1 195,137 190.8,130.7 190.8,130.7 190.8,130.6 
			189.3,123 		"/>
		<polygon points="10.3,91.7 19.2,110.8 24.7,108 25.1,97.4 22.5,93.4 21.3,98.2 18.7,96.5 16.5,90.3 13.9,92 
			10.3,91.7 		"/>
	</g>
</g>
</svg>
