<?xml version="1.0" encoding="utf-8"?>
<!-- Generator: Adobe Illustrator 21.0.2, SVG Export Plug-In . SVG Version: 6.00 Build 0)  -->
<svg version="1.1" id="Layer_1" xmlns="http://www.w3.org/2000/svg" xmlns:xlink="http://www.w3.org/1999/xlink" x="0px" y="0px"
	 viewBox="0 0 30.7 40" style="enable-background:new 0 0 30.7 40;" xml:space="preserve">
<g>
	<path d="M26,10.3l-4.3-0.7V7.3c0-0.9-0.7-1.6-1.7-1.6h-2.8V5.1c0-0.9-0.7-1.7-1.7-1.7h-5.5c-0.9,0-1.6,0.7-1.6,1.7v0.5H5.7
		c-0.9,0-1.7,0.7-1.7,1.6v14.2c0,1.2,0.2,2.4,0.6,3.6l1.4,3.7C4.3,29.2,3,30.8,3,32.6v5h1.7v0c0.3,0,0.5-0.2,0.5-0.5
		c0-0.3-0.2-0.5-0.5-0.5c0,0,0,0-0.1,0H4.1v-1.1h5.5v0c0,0,0,0,0,0c0.3,0,0.5-0.2,0.5-0.5c0-0.3-0.2-0.5-0.5-0.5c0,0,0,0,0,0v0H4.1
		v-1.6c0-1.5,1.2-2.8,2.8-2.8h6h6.1c1.5,0,2.8,1.2,2.8,2.8v1.6h-5.5v0c0,0,0,0,0,0c-0.3,0-0.5,0.2-0.5,0.5c0,0.3,0.2,0.5,0.5,0.5
		c0,0,0,0,0,0v0h5.5v1.1H9.6c0,0,0,0-0.1,0C9.3,36.5,9,36.7,9,37c0,0.3,0.2,0.5,0.5,0.5v0h13.3v-5c0-1.9-1.3-3.4-3.1-3.8l1.4-3.7
		c0.1-0.2,0.2-0.5,0.2-0.7l4.9-1.2c1.2-0.3,2.1-1.4,2.1-2.7v-7.4C28.3,11.7,27.3,10.6,26,10.3z M9.6,5.1c0-0.3,0.2-0.6,0.5-0.6h5.5
		c0.3,0,0.6,0.2,0.6,0.6v0.5H9.6V5.1z M20.6,9h-1.1v0C19.2,9,19,9.2,19,9.5c0,0.3,0.2,0.5,0.5,0.5v0h1.1v11.5c0,1.1-0.2,2.2-0.6,3.2
		l-1.5,4H7.2l-1.5-4c-0.4-1-0.6-2.1-0.6-3.2V10.1h13.2v0c0.2-0.1,0.4-0.3,0.4-0.5c0-0.3-0.2-0.5-0.4-0.5v0H5.2V7.3
		c0-0.3,0.2-0.5,0.6-0.5H20c0.3,0,0.5,0.2,0.5,0.5V9z M27.2,20.5c0,0.8-0.5,1.4-1.3,1.6l-4.4,1.1c0.1-0.4,0.1-0.7,0.1-1.1l4.4-1.1
		v-8.4L22.8,12v0c-0.3,0-0.5,0.3-0.5,0.5c0,0.3,0.2,0.5,0.5,0.5v0l2.2,0.4v6.6l-3.3,0.8V14h0v-2.4h0v-0.8l4.1,0.7
		c0.8,0.1,1.4,0.8,1.4,1.6V20.5z"/>
	<path d="M10.1,32.6c0,1.5,1.2,2.7,2.8,2.7c1.5,0,2.8-1.2,2.8-2.7c0-1.5-1.2-2.8-2.8-2.8C11.4,29.9,10.1,31.1,10.1,32.6z M11.4,31.9
		l1.1,1.1l0.8-0.8l-1.1-1.1c0.2-0.1,0.5-0.2,0.7-0.2c0.9,0,1.7,0.7,1.7,1.7c0,0.9-0.7,1.6-1.7,1.6c-0.9,0-1.6-0.7-1.6-1.6
		C11.2,32.4,11.3,32.2,11.4,31.9z"/>
	<path d="M18.4,12.3c0-0.3-0.2-0.5-0.5-0.5c-0.3,0-0.5,0.2-0.5,0.5c0,0,0,0,0,0h0v1.1H14v0c-0.3,0-0.5,0.3-0.5,0.5
		c0,0.3,0.2,0.5,0.5,0.5v0h3.3v1.1h-2.2v0c-0.3,0-0.5,0.2-0.5,0.5c0,0.3,0.2,0.5,0.5,0.5v0h2.2v1.1h-3.2c0,0,0,0,0,0s0,0,0,0h0v0
		c-0.3,0-0.5,0.3-0.5,0.5c0,0.3,0.2,0.5,0.5,0.5v0h3.3V20h-2.2c0,0,0,0,0,0c0,0,0,0,0,0h0v0c-0.3,0-0.5,0.2-0.5,0.5
		c0,0.3,0.2,0.5,0.5,0.5v0h2.2v1.1H14v0c-0.3,0-0.5,0.2-0.5,0.5c0,0.3,0.2,0.5,0.5,0.5v0h3.3v1.1h0c0,0.3,0.2,0.5,0.5,0.5
		c0.3,0,0.5-0.2,0.5-0.5h0L18.4,12.3L18.4,12.3C18.4,12.3,18.4,12.3,18.4,12.3z"/>
</g>
</svg>
