<?xml version="1.0" encoding="utf-8"?>
<svg version="1.1" id="Слой_1" xmlns="http://www.w3.org/2000/svg" xmlns:xlink="http://www.w3.org/1999/xlink" x="0px" y="0px"
	 viewBox="0 0 247 226.8" style="enable-background:new 0 0 247 226.8;" xml:space="preserve">
<g>
	<g>
		<path d="M202.8,66c-2.7,0-4.8,2.2-4.8,4.8v119.9h-151v-151h117.4c2.6,0,4.8-2.1,4.8-4.8c0-2.7-2.1-4.8-4.8-4.8H42.1
			c-2.7,0-4.8,2.1-4.8,4.8v160.6c0,2.7,2.1,4.8,4.8,4.8h160.6c2.6,0,4.8-2.1,4.8-4.8V70.8C207.5,68.1,205.4,66,202.8,66L202.8,66z
			 M202.8,66"/>
		<rect x="67.8" y="110" width="109.3" height="9.6"/>
	</g>
</g>
</svg>
