<svg version="1.1" id="Слой_1" xmlns="http://www.w3.org/2000/svg" xmlns:xlink="http://www.w3.org/1999/xlink" x="0px" y="0px"
	 viewBox="0 0 246 243" style="enable-background:new 0 0 246 243;" xml:space="preserve">
<g>
	<g>
		<path d="M235.1,82.4c-10.6-29.7-32.1-53.4-60.5-67s-60.5-15.1-90.1-4.5c-29.7,10.6-53.5,32.1-67,60.5
			c-13.5,28.5-15.1,60.5-4.5,90.2c0.9,2.5,3.6,3.8,6.1,2.9c2.5-0.9,3.8-3.6,2.9-6.1c-9.7-27.3-8.2-56.7,4.2-82.8
			c12.4-26.1,34.2-45.9,61.5-55.6c27.3-9.7,56.7-8.2,82.8,4.2c26.1,12.4,45.9,34.2,55.6,61.5c9.7,27.3,8.2,56.7-4.2,82.8
			c-12.4,26.1-34.2,45.9-61.5,55.6c-30.6,10.9-64.1,7.6-91.9-9c-2.3-1.4-5.2-0.6-6.6,1.7c-1.4,2.3-0.6,5.2,1.7,6.6
			c18.6,11.1,39.4,16.7,60.4,16.7c13.3,0,26.7-2.3,39.7-6.9c29.7-10.6,53.4-32.1,67-60.5C244.1,144,245.7,112,235.1,82.4L235.1,82.4
			z M235.1,82.4"/>
	</g>
	<path d="M176.8,122c0-2.7-2.2-4.8-4.8-4.8H52.5c-2.6,0-4.8,2.1-4.8,4.8c0,2.6,2.1,4.8,4.8,4.8H172
		C174.6,126.8,176.8,124.6,176.8,122L176.8,122z M176.8,122"/>
	<path d="M138.5,172.2c-1.9,1.9-1.9,4.9,0,6.8c0.9,0.9,2.2,1.4,3.4,1.4c1.2,0,2.5-0.5,3.4-1.4l53.6-53.6c1.9-1.9,1.9-4.9,0-6.8
		L145.3,65c-1.9-1.9-4.9-1.9-6.8,0s-1.9,4.9,0,6.8l50.2,50.2L138.5,172.2z M138.5,172.2"/>
</g>
</svg>
